{
  "$schema": "https://ui.shadcn.com/schema.json",
  "style": "default",
  "rsc": false,
  "tailwind": {
    "config": "tailwind.config.js",
    "css": "styles/globals.css",
    "baseColor": "neutral",
    "cssVariables": false
  },
  "aliases": {
    "components": "@/components",
    "utils": "@/lib/utils"
  }
}